Calculate Biomass with the Best Available Allometries • fgeo.biomass
…
In addition to fgeo.biomass, here we will use some other general purpose packages for manipulating data.

library(fgeo.biomass)
library(dplyr)
library(tidyr)

As an example, we will use census and species datasets from the ForestGEO plot at the Smithsonian Conservation Biology Institute (SCBI). This is a relatively large dataset. For a quick example we’ll pick just a few rows.

census <- fgeo.biomass::scbi_tree1 %>% 
  # Pick a few rows for speed
  sample_n(5000)

census
#> # A tibble: 5,000 x 20
#>    treeID stemID tag   StemTag sp    quadrat    gx     gy DBHID CensusID
#>     <int>  <int> <chr> <chr>   <chr> <chr>   <dbl>  <dbl> <int>    <int>
#>  1  28711  28711 1922… 1       nysy  1922     361. 424.   37285        1
#>  2  13350  13350 1024… 1       casp  1027     200. 539.   18446        1
#>  3  23985  23985 1700… 1       libe  1701     321.   6.5  31514        1
#>  4  13503  13503 1100… 1       libe  1101     219.   7.70 18624        1
#>  5  15437  15437 1202… 1       libe  1201     222.  10.8  21073        1
#>  6  16295  16295 1211… 1       caca  1211     233. 205.   22248        1
#>  7  15139  15139 1124… 1       unk   1129     204. 563.   20665        1
#>  8  35778     NA 1835… <NA>    libe  1808     351. 148.      NA       NA
#>  9  16065  16065 1209… 1       caca  1206     232. 112.   21947        1
#> 10  20998  20998 1504… 1       libe  1502     286   35.1  27840        1
#> # … with 4,990 more rows, and 10 more variables: dbh <dbl>, pom <chr>,
#> #   hom <dbl>, ExactDate <chr>, DFstatus <chr>, codes <chr>,
#> #   nostems <dbl>, date <dbl>, status <chr>, agb <dbl>

To match the census data with the best available allometric-equations we need (a) the name of the ForestGEO site (here “scbi”), and (b) each species’ Latin name. But instead of Latin names, ForestGEO’s census tables record species codes.

# To search for specific columns in the datasets
sp_or_latin <- "^sp$|^Latin$"

census %>% 
  select(matches(sp_or_latin))
#> # A tibble: 5,000 x 1
#>    sp   
#>    <chr>
#>  1 nysy 
#>  2 casp 
#>  3 libe 
#>  4 libe 
#>  5 libe 
#>  6 caca 
#>  7 unk  
#>  8 libe 
#>  9 caca 
#> 10 libe 
#> # … with 4,990 more rows

The species’ Latin names are recorded in species tables.

species <- fgeo.biomass::scbi_species

species %>% 
  select(matches(sp_or_latin))
#> # A tibble: 73 x 2
#>    sp    Latin               
#>    <chr> <chr>               
#>  1 acne  Acer negundo        
#>  2 acpl  Acer platanoides    
#>  3 acru  Acer rubrum         
#>  4 acsp  Acer sp             
#>  5 aial  Ailanthus altissima 
#>  6 amar  Amelanchier arborea 
#>  7 astr  Asimina triloba     
#>  8 beth  Berberis thunbergii 
#>  9 caca  Carpinus caroliniana
#> 10 caco  Carya cordiformis   
#> # … with 63 more rows

We can then add species’ Latin names to the census data by joining the census and species tables. We may do that with dplyr::left_join() but fgeo.biomass::add_species() is more specialized.

census_species <- census %>%
  add_species(species, "scbi")
#> Adding `site`.
#> Overwriting `sp`; it now stores Latin species names.
#> Adding `rowid`.

census_species %>% 
  select(matches(sp_or_latin))
#> # A tibble: 5,000 x 1
#>    sp                  
#>  * <chr>               
#>  1 nyssa sylvatica     
#>  2 carya sp            
#>  3 lindera benzoin     
#>  4 lindera benzoin     
#>  5 lindera benzoin     
#>  6 carpinus caroliniana
#>  7 unidentified unk    
#>  8 lindera benzoin     
#>  9 carpinus caroliniana
#> 10 lindera benzoin     
#> # … with 4,990 more rows

Finding the best available allometric-equations

Before we added the Latin name of each species to the census data into the sp column. Now we want to find the best available allometric-equations for as many rows as possible with allo_find(). We may not have allometric equations form all species. Although the code will eventually fall back to more general equations, for now we just drop the rows that don’t match the available species for the specified site.

equations <- census_species %>% 
  allo_find()
#> Warning: Can't find equations matching these species (inserting 145 missing values):
#> acer sp, carya sp, fraxinus sp, juniperus virginiana, quercus prinus, ulmus sp, unidentified unk
#> Joining, by = sp, site.

equations
#> # A tibble: 5,888 x 29
#>    rowid treeID stemID tag   StemTag sp    quadrat    gx     gy DBHID
#>    <int>  <int>  <int> <chr> <chr>   <chr> <chr>   <dbl>  <dbl> <int>
#>  1     1  28711  28711 1922… 1       nyss… 1922     361. 424.   37285
#>  2     1  28711  28711 1922… 1       nyss… 1922     361. 424.   37285
#>  3     1  28711  28711 1922… 1       nyss… 1922     361. 424.   37285
#>  4     2  13350  13350 1024… 1       cary… 1027     200. 539.   18446
#>  5     3  23985  23985 1700… 1       lind… 1701     321.   6.5  31514
#>  6     4  13503  13503 1100… 1       lind… 1101     219.   7.70 18624
#>  7     5  15437  15437 1202… 1       lind… 1201     222.  10.8  21073
#>  8     6  16295  16295 1211… 1       carp… 1211     233. 205.   22248
#>  9     7  15139  15139 1124… 1       unid… 1129     204. 563.   20665
#> 10     8  35778     NA 1835… <NA>    lind… 1808     351. 148.      NA
#> # … with 5,878 more rows, and 19 more variables: CensusID <int>,
#> #   dbh <dbl>, pom <chr>, hom <dbl>, ExactDate <chr>, DFstatus <chr>,
#> #   codes <chr>, nostems <dbl>, date <dbl>, status <chr>, agb <dbl>,
#> #   site <chr>, equation_id <chr>, eqn <chr>, eqn_source <chr>,
#> #   eqn_type <chr>, anatomic_relevance <chr>, dbh_unit <chr>,
#> #   bms_unit <chr>

If you need more information about each equation, allo_lookup() helps you to look it up in allodb.

equations %>% 
  allo_lookup(allodb::master())
#> Joining `equations` and `sitespecies` by 'equation_id'; then `sites_info` by 'site'.
#> Joining, by = "equation_id"
#> # A tibble: 242,370 x 44
#>    rowid equation_id ref_id equation_allome… equation_form dependent_varia…
#>    <int> <chr>       <chr>  <chr>            <chr>         <chr>           
#>  1     1 380d95      clark… 0.77244*(dbh^2)… a*(dbh^2)^b   Stem (wood and …
#>  2     1 380d95      clark… 0.77244*(dbh^2)… a*(dbh^2)^b   Stem (wood and …
#>  3     1 380d95      clark… 0.77244*(dbh^2)… a*(dbh^2)^b   Stem (wood and …
#>  4     1 23ab74      clark… 1.40359*(dbh^2)… a*(dbh^2)^b   Stem (wood and …
#>  5     1 23ab74      clark… 1.40359*(dbh^2)… a*(dbh^2)^b   Stem (wood and …
#>  6     1 23ab74      clark… 1.40359*(dbh^2)… a*(dbh^2)^b   Stem (wood and …
#>  7     1 e8ebc2      jenki… 2.56795*(dbh^2)… a*(dbh^2)^b   Total abovegrou…
#>  8     1 e8ebc2      jenki… 2.56795*(dbh^2)… a*(dbh^2)^b   Total abovegrou…
#>  9     1 e8ebc2      jenki… 2.56795*(dbh^2)… a*(dbh^2)^b   Total abovegrou…
#> 10     2 <NA>        <NA>   <NA>             <NA>          <NA>            
#> # … with 242,360 more rows, and 38 more variables:
#> #   independent_variable <chr>, allometry_specificity <chr>,
#> #   geographic_area <chr>, dbh_min_cm <chr>, dbh_max_cm <chr>,
#> #   sample_size <chr>, dbh_units_original <chr>,
#> #   biomass_units_original <chr>, allometry_development_method <chr>,
#> #   regression_model <chr>, other_equations_tested <chr>,
#> #   log_biomass <chr>, bias_corrected <chr>, bias_correction_factor <chr>,
#> #   notes_fitting_model <chr>, original_data_availability <chr>,
#> #   warning <chr>, site <chr>, family <chr>, species <chr>,
…
#> Converting `dbh` based on `dbh_unit`.
#> `biomass` values are given in [kg].
#> Warning: Can't convert all units (inserting 145 missing values):
#> the 'to' argument is not an acceptable unit.
#> Warning: Can't convert all units (inserting 145 missing values):
#> the 'from' argument is not an acceptable unit.
#> Warning: Can't evaluate all equations (inserting 111 missing values):
#> object 'dba' not found
#> Warning: 
#>     `biomass` may be invalid.
#>     We still don't suppor the ability to select dbh-specific equations
#>     (see https://github.com/forestgeo/fgeo.biomass/issues/9).
#> 
biomass
#> # A tibble: 5,000 x 2
#>    rowid biomass
#>    <int>   <dbl>
#>  1     1  37.6  
#>  2     2  NA    
#>  3     3   0.202
#>  4     4   0.118
#>  5     5   1.06 
#>  6     6   6.53 
#>  7     7  NA    
#>  8     8  NA    
#>  9     9   0.161
#> 10    10   0.282
#> # … with 4,990 more rows

with_biomass <- biomass %>% right_join(equations)
#> Joining, by = "rowid"

with_biomass %>% 
  select(eqn, dbh, biomass)
#> # A tibble: 5,888 x 3
#>    eqn                                dbh biomass
#>    <chr>                            <dbl>   <dbl>
#>  1 0.77244 * (dbh^2)^1.36853         80.6  37.6  
#>  2 1.40359 * (dbh^2)^1.244           80.6  37.6  
#>  3 2.56795 * (dbh^2)^1.18685         80.6  37.6  
#>  4 <NA>                             335    NA    
#>  5 exp(-2.2118 + 2.4133 * log(dbh))  12.9   0.202
#>  6 exp(-2.2118 + 2.4133 * log(dbh))  10.3   0.118
#>  7 exp(-2.2118 + 2.4133 * log(dbh))  25.6   1.06 
#>  8 exp(-2.48 + 2.4835 * log(dbh))    57.8   6.53 
#>  9 <NA>                             118.   NA    
#> 10 exp(-2.2118 + 2.4133 * log(dbh))  NA    NA    
#> # … with 5,878 more rows

Commonly we would further summarize the result. For that you can use the dplyr package or any general purpose tool. For example, this summary gives the total biomass for each species in descending order.

with_biomass %>% 
  group_by(sp) %>% 
  summarize(total_biomass = sum(biomass, na.rm = TRUE)) %>% 
  arrange(desc(total_biomass))
#> # A tibble: 52 x 2
#>    sp                      total_biomass
#>    <chr>                           <dbl>
#>  1 liriodendron tulipifera  15292391607.
#>  2 quercus velutina              334261.
#>  3 nyssa sylvatica               108081.
#>  4 quercus rubra                  95633.
#>  5 quercus alba                   87330.
#>  6 carya glabra                   45560.
#>  7 tilia americana                42708.
#>  8 fraxinus americana             31289.
#>  9 carya tomentosa                28602.
#> 10 platanus occidentalis          21067.
#> # … with 42 more rows
…
class(as_eqn(custom_equations))
#> [1] "eqn"        "tbl_df"     "tbl"        "data.frame"

We can now use the argument custom_eqn to pass our custom equations to allo_find().

allo_find(census_species, custom_eqn = as_eqn(custom_equations))
#> Warning: Can't find equations matching these species (inserting 5000 missing values):
#> acer negundo, acer platanoides, acer rubrum, acer sp, ailanthus altissima, amelanchier arborea, asimina triloba, carpinus caroliniana, carya cordiformis, carya glabra, carya ovalis, carya sp, carya tomentosa, celtis occidentalis, cercis canadensis, cornus florida, fagus grandifolia, fraxinus americana, fraxinus nigra, fraxinus pennsylvanica, fraxinus sp, hamamelis virginiana, ilex verticillata, juglans cinerea, juglans nigra, juniperus virginiana, lindera benzoin, liriodendron tulipifera, lonicera maackii, nyssa sylvatica, pinus strobus, pinus virginiana, platanus occidentalis, prunus avium, prunus serotina, quercus alba, quercus muehlenbergii, quercus prinus, quercus rubra, quercus velutina, robinia pseudoacacia, rosa multiflora, rubus allegheniensis, rubus phoenicolasius, sambucus canadensis, sassafras albidum, tilia americana, ulmus americana, ulmus rubra, ulmus sp, unidentified unk, viburnum prunifolium
#> Joining, by = sp, site.
#> # A tibble: 5,000 x 29
#>    rowid treeID stemID tag   StemTag sp    quadrat    gx     gy DBHID
#>    <int>  <int>  <int> <chr> <chr>   <chr> <chr>   <dbl>  <dbl> <int>
#>  1     1  28711  28711 1922… 1       nyss… 1922     361. 424.   37285
#>  2     2  13350  13350 1024… 1       cary… 1027     200. 539.   18446
#>  3     3  23985  23985 1700… 1       lind… 1701     321.   6.5  31514
#>  4     4  13503  13503 1100… 1       lind… 1101     219.   7.70 18624
#>  5     5  15437  15437 1202… 1       lind… 1201     222.  10.8  21073
#>  6     6  16295  16295 1211… 1       carp… 1211     233. 205.   22248
#>  7     7  15139  15139 1124… 1       unid… 1129     204. 563.   20665
#>  8     8  35778     NA 1835… <NA>    lind… 1808     351. 148.      NA
#>  9     9  16065  16065 1209… 1       carp… 1206     232. 112.   21947
#> 10    10  20998  20998 1504… 1       lind… 1502     286   35.1  27840
#> # … with 4,990 more rows, and 19 more variables: CensusID <int>,
#> #   dbh <dbl>, pom <chr>, hom <dbl>, ExactDate <chr>, DFstatus <chr>,
#> #   codes <chr>, nostems <dbl>, date <dbl>, status <chr>, agb <dbl>,
#> #   site <chr>, equation_id <chr>, eqn <chr>, eqn_source <chr>,
#> #   eqn_type <chr>, anatomic_relevance <chr>, dbh_unit <chr>,
#> #   bms_unit <chr>
…
  allo_find(custom_eqn = as_eqn(custom_equations)) %>%
  allo_evaluate()
#> Assuming `dbh` unit in [mm].
#> Converting `dbh` based on `dbh_unit`.
#> `biomass` values are given in [kg].
#> Warning: Can't convert all units (inserting 5000 missing values):
#> the 'to' argument is not an acceptable unit.
#> Warning: Can't convert all units (inserting 5000 missing values):
#> the 'from' argument is not an acceptable unit.
#> Warning: 
#>     `biomass` may be invalid.
#>     We still don't suppor the ability to select dbh-specific equations
#>     (see https://github.com/forestgeo/fgeo.biomass/issues/9).
#> 
#> # A tibble: 5,000 x 2
#>    rowid biomass
#>    <int>   <dbl>
#>  1     1      NA
#>  2     2      NA
#>  3     3      NA
#>  4     4      NA
#>  5     5      NA
#>  6     6      NA
#>  7     7      NA
#>  8     8      NA
#>  9     9      NA
#> 10    10      NA
#> # … with 4,990 more rows
…
