…
As an example, we will use census and species datasets from the
ForestGEO plot at the [Smithsonian Conservation Biology
Institute](https://forestgeo.si.edu/sites/north-america/smithsonian-conservation-biology-institute)
(SCBI). This is a relatively large dataset. For a quick example we’ll
pick just a few rows.

``` r
census <- fgeo.biomass::scbi_tree1 %>% 
  # Pick a few rows for speed
  sample_n(5000)

census
#> # A tibble: 5,000 x 20
#>    treeID stemID tag   StemTag sp    quadrat    gx    gy DBHID CensusID
#>     <int>  <int> <chr> <chr>   <chr> <chr>   <dbl> <dbl> <int>    <int>
#>  1  14548  14548 1112~ 1       caovl 1111    217.  213.  19996        1
#>  2   8588   8588 70589 1       litu  0714    139.  272.  12835        1
#>  3  19240  19240 1404~ 1       libe  1402    279.   30.5 25749        1
#>  4  20907  20907 1503~ 1       ulru  1501    286    14.7 27713        1
#>  5  16376  16376 1212~ 1       cato  1209    228.  176.  22356        1
#>  6  37228     NA 2015~ <NA>    libe  2011    380   204.     NA       NA
#>  7  38646     NA 23165 <NA>    libe  0205     36.1  94.5    NA       NA
#>  8  10918  10918 90674 1       havi  0914    168.  271.  15552        1
#>  9  35757     NA 1834~ <NA>    libe  1808    356.  160.     NA       NA
#> 10  36032     NA 1915~ <NA>    libe  1911    373.  205.     NA       NA
#> # ... with 4,990 more rows, and 10 more variables: dbh <dbl>, pom <chr>,
#> #   hom <dbl>, ExactDate <chr>, DFstatus <chr>, codes <chr>,
#> #   nostems <dbl>, date <dbl>, status <chr>, agb <dbl>
```

To match the census data with the best available allometric-equations we
need (a) the name of the ForestGEO site (here “scbi”), and (b) each
species’ Latin name. But instead of Latin names, ForestGEO’s *census*
tables record species codes.

``` r
# To search for specific columns in the datasets
sp_or_latin <- "^sp$|^Latin$"

census %>% 
  select(matches(sp_or_latin))
#> # A tibble: 5,000 x 1
#>    sp   
#>    <chr>
#>  1 caovl
#>  2 litu 
#>  3 libe 
#>  4 ulru 
#>  5 cato 
#>  6 libe 
#>  7 libe 
#>  8 havi 
#>  9 libe 
#> 10 libe 
#> # ... with 4,990 more rows
```

The species’ Latin names are recorded in *species* tables.

``` r
species <- fgeo.biomass::scbi_species

species %>% 
  select(matches(sp_or_latin))
#> # A tibble: 73 x 2
#>    sp    Latin               
#>    <chr> <chr>               
#>  1 acne  Acer negundo        
#>  2 acpl  Acer platanoides    
#>  3 acru  Acer rubrum         
#>  4 acsp  Acer sp             
#>  5 aial  Ailanthus altissima 
#>  6 amar  Amelanchier arborea 
#>  7 astr  Asimina triloba     
#>  8 beth  Berberis thunbergii 
#>  9 caca  Carpinus caroliniana
#> 10 caco  Carya cordiformis   
#> # ... with 63 more rows
```

We can then add species’ Latin names to the census data by joining the
*census* and *species* tables. We may do that with `dplyr::left_join()`
but `fgeo.biomass::add_species()` is more specialized.

``` r
census_species <- census %>%
  add_species(species, "scbi")
#> Adding `site`.
#> Overwriting `sp`; it now stores Latin species names.
#> Adding `rowid`.

census_species %>% 
  select(matches(sp_or_latin))
#> # A tibble: 5,000 x 1
#>    sp                     
#>  * <chr>                  
#>  1 carya ovalis           
#>  2 liriodendron tulipifera
#>  3 lindera benzoin        
#>  4 ulmus rubra            
#>  5 carya tomentosa        
#>  6 lindera benzoin        
#>  7 lindera benzoin        
#>  8 hamamelis virginiana   
#>  9 lindera benzoin        
#> 10 lindera benzoin        
#> # ... with 4,990 more rows
```
…
``` r
equations <- census_species %>% 
  allo_find()
#>   Guessing `dbh` in [mm] (required to find dbh-specific equations).
#> You may provide the `dbh` unit manually via the argument `dbh_unit`.
#> * Matching equations by site and species.
#> * Refining equations according to dbh.
#> * Using generic equations where expert equations can't be found.
#> Warning:   Can't find equations matching these species:
#>   acer sp, carya sp, crataegus sp, fraxinus sp, quercus prinus, quercus sp, ulmus sp, unidentified unk
#> Warning: Can't find equations for 3239 rows (inserting `NA`).

equations
#> # A tibble: 5,035 x 32
#>    rowid treeID stemID tag   StemTag sp    quadrat    gx    gy DBHID
#>    <int>  <int>  <int> <chr> <chr>   <chr> <chr>   <dbl> <dbl> <int>
#>  1     1  14548  14548 1112~ 1       cary~ 1111    217.  213.  19996
#>  2     2   8588   8588 70589 1       liri~ 0714    139.  272.  12835
#>  3     3  19240  19240 1404~ 1       lind~ 1402    279.   30.5 25749
#>  4     4  20907  20907 1503~ 1       ulmu~ 1501    286    14.7 27713
#>  5     5  16376  16376 1212~ 1       cary~ 1209    228.  176.  22356
#>  6     6  37228     NA 2015~ <NA>    lind~ 2011    380   204.     NA
#>  7     7  38646     NA 23165 <NA>    lind~ 0205     36.1  94.5    NA
#>  8     8  10918  10918 90674 1       hama~ 0914    168.  271.  15552
#>  9     9  35757     NA 1834~ <NA>    lind~ 1808    356.  160.     NA
#> 10    10  36032     NA 1915~ <NA>    lind~ 1911    373.  205.     NA
#> # ... with 5,025 more rows, and 22 more variables: CensusID <int>,
#> #   dbh <dbl>, pom <chr>, hom <dbl>, ExactDate <chr>, DFstatus <chr>,
#> #   codes <chr>, nostems <dbl>, date <dbl>, status <chr>, agb <dbl>,
#> #   site <chr>, equation_id <chr>, eqn <chr>, eqn_source <chr>,
#> #   eqn_type <chr>, anatomic_relevance <chr>, dbh_unit <chr>,
#> #   bms_unit <chr>, dbh_min_mm <dbl>, dbh_max_mm <dbl>, is_generic <lgl>
```
…
biomass <- equations %>% 
  allo_evaluate()
#> Guessing `dbh` in [mm]
#> You may provide the `dbh` unit manually via the argument `dbh_unit`.
#> Converting `dbh` based on `dbh_unit`.
#> `biomass` values are given in [kg].
#> Warning: Can't convert all units (inserting 3239 missing values):
#> the 'to' argument is not an acceptable unit.
#> Warning: Can't convert all units (inserting 3239 missing values):
#> the 'from' argument is not an acceptable unit.
#> Warning: Can't evaluate all equations (inserting 29 missing values):
#> object 'dba' not found
#> Warning: `biomass` may be invalid. This is still work in progress.
biomass
#> # A tibble: 5,000 x 2
#>    rowid biomass
#>    <int>   <dbl>
#>  1     1    230.
#>  2     2    209.
#>  3     3     NA 
#>  4     4    214.
#>  5     5     NA 
#>  6     6     NA 
#>  7     7     NA 
#>  8     8     NA 
#>  9     9     NA 
#> 10    10     NA 
#> # ... with 4,990 more rows

with_biomass <- biomass %>% right_join(equations)
#> Joining, by = "rowid"

with_biomass %>% 
  select(eqn, dbh, biomass)
#> # A tibble: 5,035 x 3
#>    eqn                                  dbh biomass
#>    <chr>                              <dbl>   <dbl>
#>  1 10^(-1.326 + 2.762 * (log10(dbh))) 216.     230.
#>  2 10^(-1.236 + 2.635 * (log10(dbh))) 224.     209.
#>  3 <NA>                                10.4     NA 
#>  4 2.17565 * (dbh^2)^1.2481           219      214.
#>  5 <NA>                                22.2     NA 
#>  6 <NA>                                NA       NA 
#>  7 <NA>                                NA       NA 
#>  8 <NA>                                62.8     NA 
#>  9 <NA>                                NA       NA 
#> 10 <NA>                                NA       NA 
#> # ... with 5,025 more rows
```

Commonly we would further summarize the result. For that you can use the
**dplyr** package or any general purpose tool. For example, this summary
gives the total biomass for each species in descending order.

``` r
with_biomass %>% 
  group_by(sp) %>% 
  summarize(total_biomass = sum(biomass, na.rm = TRUE)) %>% 
  arrange(desc(total_biomass))
#> # A tibble: 57 x 2
#>    sp                      total_biomass
#>    <chr>                           <dbl>
#>  1 liriodendron tulipifera       143694.
#>  2 quercus velutina              110923.
#>  3 carya glabra                   45350.
#>  4 quercus alba                   38318.
#>  5 quercus rubra                  25880.
#>  6 juglans nigra                  21318.
#>  7 carya tomentosa                19183.
#>  8 fraxinus americana             17213.
#>  9 carya cordiformis              10377.
#> 10 carya ovalis                    8992.
#> # ... with 47 more rows
```
…
