…
We can now calculate `biomass`.

``` r
biomass <- allo_evaluate(census_equations2)
#> Warning:   Detected a single stem per tree. Consider these properties of the result:
#>   * For trees, `biomass` is that of the main stem.
#>   * For shrubs, `biomass` is that of the entire shrub.
#>   Do you need a multi-stem table?
#> Guessing `dbh` in [mm]
#> You may provide the `dbh` unit manually via the argument `dbh_unit`.
#> Converting `dbh` based on `dbh_unit`.
#> `biomass` values are given in [kg].

biomass
#> # A tibble: 14,049 x 2
#>    rowid biomass
#>    <int>   <dbl>
#>  1     6   0.400
#>  2     8   5.69 
#>  3    17  11.3  
#>  4    21 231.   
#>  5    22  10.3  
#>  6    23   0.537
#>  7    26   4.15 
#>  8    29 469.   
#>  9    34   3.44 
#> 10    38   4.96 
#> # ... with 14,039 more rows
```

Notice the warning reminding us that we are using a tree-table (as
opposed to a stem-table), and informing us about how to interpret the
resulting `biomass` values for trees and shrubs.

Let’s add `biomass` to the data we’ve been using.

``` r
census_equations_biomass <- census_equations2 %>%
  right_join(biomass)
#> Joining, by = "rowid"

census_equations_biomass
#> # A tibble: 14,287 x 34
#>    rowid treeID stemID tag   StemTag sp    quadrat    gx     gy DBHID
#>    <int>  <int>  <int> <chr> <chr>   <chr> <chr>   <dbl>  <dbl> <int>
#>  1     6      6      6 12192 1       hama~ 0122     1.30 434       13
#>  2     8      8      8 12261 1       lind~ 0125    18    484.      17
#>  3    17     17     17 20031 1       lind~ 0201    37.1    7.40    40
#>  4    21     21     21 20064 1       liri~ 0217    31.4  322.      69
#>  5    22     22     22 20090 1       lind~ 0204    39.1   67.3     70
#>  6    23     23     23 20106 1       hama~ 0202    25.7   28.3     86
#>  7    26     26     26 20120 1       ilex~ 0202    22.3   32.6     96
#>  8    29     29     29 20151 1       acer~ 0203    31.5   45.8    130
#>  9    34     34     34 20169 1       lind~ 0203    37.2   53.4    149
#> 10    38     38     38 20181 1       frax~ 0203    29.8   59.2    169
#> # ... with 14,277 more rows, and 24 more variables: CensusID <int>,
#> #   dbh <dbl>, pom <chr>, hom <dbl>, ExactDate <chr>, DFstatus <chr>,
#> #   codes <chr>, nostems <dbl>, date <dbl>, status <chr>, agb <dbl>,
#> #   site <chr>, eqn_id <chr>, eqn <chr>, eqn_source <chr>, eqn_type <chr>,
#> #   anatomic_relevance <chr>, dbh_unit <chr>, bms_unit <chr>,
#> #   dbh_min_mm <dbl>, dbh_max_mm <dbl>, is_generic <lgl>, life_form <chr>,
#> #   biomass <dbl>
```
…
