Evaluate equations, giving a biomass result per row. — allo_evaluate • fgeo.biomass
…
allo_evaluate(best)
#> Assuming `dbh` unit in [mm].
#> Converting `dbh` based on `dbh_unit`.
#> `biomass` values are given in [kg].
#> Warning: Can't convert all units (inserting 314 missing values):
#> the 'to' argument is not an acceptable unit.
#> Warning: Can't convert all units (inserting 314 missing values):
#> the 'from' argument is not an acceptable unit.
#> Warning: Can't evaluate all equations (inserting 4 missing values):
#> object 'dba' not found
#> Warning: `biomass` may be invalid. This is still work in progress.
#> # A tibble: 500 x 2
#>    rowid biomass
#>    <int>   <dbl>
#>  1     1   NA   
#>  2     2   NA   
#>  3     3   NA   
#>  4     4   18.5 
#>  5     5   NA   
#>  6     6   NA   
#>  7     7    1.16
#>  8     8 2222.  
#>  9     9   NA   
#> 10    10    8.75
#> # … with 490 more rows

allo_evaluate(best, biomass_unit = "Mg")
#> Assuming `dbh` unit in [mm].
#> Converting `dbh` based on `dbh_unit`.
#> `biomass` values are given in [Mg].
#> Warning: Can't convert all units (inserting 314 missing values):
#> the 'to' argument is not an acceptable unit.
#> Warning: Can't convert all units (inserting 314 missing values):
#> the 'from' argument is not an acceptable unit.
#> Warning: Can't evaluate all equations (inserting 4 missing values):
#> object 'dba' not found
#> Warning: `biomass` may be invalid. This is still work in progress.
#> # A tibble: 500 x 2
#>    rowid  biomass
#>    <int>    <dbl>
#>  1     1 NA      
#>  2     2 NA      
#>  3     3 NA      
#>  4     4  0.0185 
#>  5     5 NA      
#>  6     6 NA      
#>  7     7  0.00116
#>  8     8  2.22   
#>  9     9 NA      
#> 10    10  0.00875
#> # … with 490 more rows
…
