…
default_eqn(data)

    Arguments

      data
      allodb::master() or similar.

    Value

    A dataframe.

    Examples

default_eqn(allodb::master())
#> # A tibble: 620 x 7
#>    equation_id site    sp       eqn        eqn_source eqn_type anatomic_relevan…
#>  * <chr>       <chr>   <chr>    <chr>      <chr>      <chr>    <chr>            
#>  1 2060ea      lilly … acer ru… 10^(1.189… default    species  total abovegroun…
#>  2 2060ea      tyson   acer ru… 10^(1.189… default    species  total abovegroun…
#>  3 a4d879      lilly … acer sa… 10^(1.231… default    species  total abovegroun…
#>  4 a4d879      tyson   acer sa… 10^(1.231… default    species  total abovegroun…
#>  5 c59e03      lilly … amelanc… exp(7.217… default    genus    stem biomass (wi…
#>  6 c59e03      scbi    amelanc… exp(7.217… default    genus    stem biomass (wi…
#>  7 c59e03      serc    amelanc… exp(7.217… default    genus    stem biomass (wi…
#>  8 c59e03      serc    amelanc… exp(7.217… default    genus    stem biomass (wi…
#>  9 c59e03      tyson   amelanc… exp(7.217… default    genus    stem biomass (wi…
#> 10 c59e03      umbc    amelanc… exp(7.217… default    genus    stem biomass (wi…
#> # … with 610 more rows
…
