Calculate Biomass • fgeo.biomass
…
Example

library(tidyverse)
library(allodb)
library(fgeo.biomass)

For now we are excluding some equations from allodb.

# Internal
excluding <- fgeo.biomass:::.bad_eqn_id

allodb::equations %>% 
  filter(equation_id %in% excluding) %>% 
  select(equation_id, equation_allometry)
#> # A tibble: 25 x 2
#>    equation_id equation_allometry         
#>    <chr>       <chr>                      
#>  1 76aa3c      38.111*(dba^2.9)           
#>  2 28dce6      51.996*(dba^2.77)          
#>  3 a1646f      37.637*(dba^2.779)         
#>  4 b61369      43.992*(dba^2.86)          
#>  5 5e2dea      29.615*(dba^3.243)         
#>  6 3cb95a      exp(2.025+3.527*log(dba))  
#>  7 c94845      51.68+0.02*BA              
#>  8 6b3b2a      exp(3.67+2.847*log(dba))   
#>  9 b95baf      exp(3.892+3.122*log(dba))  
#> 10 e8f868      exp(3.6123+2.9944*log(dba))
#> # ... with 15 more rows
…
