…
census <- allodb::scbi_tree1
species <- allodb::scbi_species

single_best <- census %>%
  census_species(species, site = "scbi") %>%
  get_equations() %>%
  pick_best_equations() %>%
  pick_one_row_by_rowid()

ids <- add_equations(census, single_best)
#> Joining, by = "rowid"
allo_lookup(ids)
#> Joining, by = "equation_id"
#> # A tibble: 40,283 x 23
#>    rowid equation_id ref_id equation_allome~ equation_form dependent_varia~
#>    <int> <chr>       <chr>  <chr>            <chr>         <chr>           
#>  1     1 f08fff      chojn~ exp(-2.2118+2.4~ exp(a+b*ln(D~ Total abovegrou~
#>  2     2 f08fff      chojn~ exp(-2.2118+2.4~ exp(a+b*ln(D~ Total abovegrou~
#>  3     3 f08fff      chojn~ exp(-2.2118+2.4~ exp(a+b*ln(D~ Total abovegrou~
#>  4     4 8da09d      jenki~ 1.5416*(dbh^2)^~ a*(DBH^2)^b   Stem and branch~
#>  5     5 <NA>        <NA>   <NA>             <NA>          <NA>            
#>  6     6 <NA>        <NA>   <NA>             <NA>          <NA>            
#>  7     7 <NA>        <NA>   <NA>             <NA>          <NA>            
#>  8     8 f08fff      chojn~ exp(-2.2118+2.4~ exp(a+b*ln(D~ Total abovegrou~
#>  9     9 <NA>        <NA>   <NA>             <NA>          <NA>            
#> 10    10 ae65ed      jenki~ exp(-2.48+2.483~ exp(a+b*ln(D~ Total abovegrou~
#> # ... with 40,273 more rows, and 17 more variables: independent_variable <chr>,
#> #   allometry_specificity <chr>, geographic_area <chr>, dbh_min_cm <chr>,
#> #   dbh_max_cm <chr>, sample_size <chr>, dbh_units_original <chr>,
#> #   biomass_units_original <chr>, allometry_development_method <chr>,
#> #   regression_model <chr>, other_equations_tested <chr>, log_biomass <chr>,
#> #   bias_corrected <chr>, bias_correction_factor <chr>,
#> #   notes_fitting_model <chr>, original_data_availability <chr>, warning <chr>
…
