…
    Value

    A dataframe.

    See also

    Other internal objects that will be hidden or removed: .bad_eqn_id,
  .default_eqn, bad_eqn_id

    Examples

default_eqn(allodb::master())
#> # A tibble: 619 x 6
#>    equation_id site     sp             eqn                  eqn_source eqn_type
#>  * <chr>       <chr>    <chr>          <chr>                <chr>      <chr>   
#>  1 2060ea      lilly d~ acer rubrum    10^(1.1891 + 1.419 ~ default    species 
#>  2 2060ea      tyson    acer rubrum    10^(1.1891 + 1.419 ~ default    species 
#>  3 a4d879      lilly d~ acer saccharum 10^(1.2315 + 1.6376~ default    species 
#>  4 a4d879      tyson    acer saccharum 10^(1.2315 + 1.6376~ default    species 
#>  5 c59e03      lilly d~ amelanchier a~ exp(7.217 + 1.514 *~ default    genus   
#>  6 c59e03      scbi     amelanchier a~ exp(7.217 + 1.514 *~ default    genus   
#>  7 c59e03      serc     amelanchier a~ exp(7.217 + 1.514 *~ default    genus   
#>  8 c59e03      serc     amelanchier c~ exp(7.217 + 1.514 *~ default    genus   
#>  9 c59e03      tyson    amelanchier a~ exp(7.217 + 1.514 *~ default    genus   
#> 10 c59e03      umbc     amelanchier a~ exp(7.217 + 1.514 *~ default    genus   
#> # ... with 609 more rows
…
