…
    Other functions to manipulate equations: add_equations,
  allo_find, allo_lookup,
  allo_order

    Examples

library(dplyr)

best <- allodb::scbi_tree1 %>%
  add_species(allodb::scbi_species, "scbi") %>%
  allo_find() %>%
  allo_order()

allo_evaluate(best)
#> # A tibble: 30,229 x 9
#>    eqn_type rowid site  sp        dbh equation_id eqn        eqn_source biomass
#>    <chr>    <int> <chr> <chr>   <dbl> <chr>       <chr>      <chr>        <dbl>
#>  1 family       1 scbi  linder~  27.9 f08fff      exp(-2.21~ default      337. 
#>  2 family       2 scbi  linder~  23.7 f08fff      exp(-2.21~ default      228. 
#>  3 family       3 scbi  linder~  22.2 f08fff      exp(-2.21~ default      194. 
#>  4 family       8 scbi  linder~  51.4 f08fff      exp(-2.21~ default     1474. 
#>  5 family      13 scbi  linder~  15.4 f08fff      exp(-2.21~ default       80.4
#>  6 family      14 scbi  linder~  14.8 f08fff      exp(-2.21~ default       73.0
#>  7 family      15 scbi  linder~  15.5 f08fff      exp(-2.21~ default       81.7
#>  8 family      16 scbi  linder~  17.4 f08fff      exp(-2.21~ default      108. 
#>  9 family      17 scbi  linder~  68.2 f08fff      exp(-2.21~ default     2917. 
#> 10 family      18 scbi  linder~  19.3 f08fff      exp(-2.21~ default      139. 
#> # ... with 30,219 more rows
…
